{
  "AJP_duDukeID": "du_duke_id",
  "AJP_displayName": "display_name",
  "AJP_affiliation": "affiliation",
  "AJP_givenName": "given_name",
  "AJP_isMemberOf": "is_member_of",
  "AJP_mail": "mail",
  "AJP_primary": "primary_affiliation",
  "AJP_sn": "sn",
  "AJP_uid": "uid",
  "AJP_eppn": "eppn",
  "duDukeID": "du_duke_id"
}
